2019-08-31T01:00:40+00:00 CRITICAL Uncaught Error: Call to undefined method WC_Facebookcommerce_Integration::log() in /usr/www/users/bicycthnvz/wp-content/plugins/facebook-for-woocommerce/facebook-commerce.php:1808
Stack trace:
#0 /usr/www/users/bicycthnvz/wp-includes/class-wp-hook.php(286): WC_Facebookcommerce_Integration->sync_all_fb_products_using_feed()
#1 /usr/www/users/bicycthnvz/wp-includes/class-wp-hook.php(310): WP_Hook->apply_filters('', Array)
#2 /usr/www/users/bicycthnvz/wp-includes/plugin.php(515): WP_Hook->do_action(Array)
#3 /usr/www/users/bicycthnvz/wp-cron.php(126): do_action_ref_array('sync_all_fb_pro...', Array)
#4 {main}
  thrown in /usr/www/users/bicycthnvz/wp-content/plugins/facebook-for-woocommerce/facebook-commerce.php on line 1808

